{
  "name": "WMZTags",
  "version": "1.0.1",
  "license": "MIT",
  "summary": "控件采用链式编程，仿前端element-UI框架的标签功能",
  "description": "实现高度自定义的标签,增加和删除和单选和多选\n注：Building Settings设置CLANG_WARN_OBJC_IMPLICIT_RETAIN_SELF为NO可以消除链  式编程的警告",
  "homepage": "https://github.com/wwmz/WMZTags",
  "authors": {
    "wmz": "925457662@qq.com"
  },
  "platforms": {
    "ios": null
  },
  "source": {
    "git": "https://github.com/wwmz/WMZTags.git",
    "tag": "1.0.1"
  },
  "source_files": "WMZTags/WMZTags/**/*.{h,m}",
  "frameworks": "UIKit",
  "user_target_xcconfig": {
    "CLANG_ALLOW_NON_MODULAR_INCLUDES_IN_FRAMEWORK_MODULES": "YES"
  },
  "dependencies": {
    "Masonry": [

    ]
  }
}
