{
  "name": "TLSortAndSearch",
  "version": "0.1.1",
  "summary": "A short description of TLSortAndSearch.",
  "homepage": "https://github.com/huawt/TLSortAndSearch",
  "license": {
    "type": "MIT",
    "file": "LICENSE"
  },
  "authors": {
    "huawt": "ghost263sky@163.com"
  },
  "source": {
    "git": "https://github.com/huawt/TLSortAndSearch.git",
    "tag": "0.1.1"
  },
  "platforms": {
    "ios": "8.0"
  },
  "source_files": "TLSortAndSearch/Classes/**/*",
  "public_header_files": "TLSortAndSearch/Classes/**/*.h",
  "frameworks": "Foundation",
  "xcconfig": {
    "HEADER_SEARCH_PATHS": "$(SDKROOT)/usr/include"
  }
}
