{
  "name": "TMRelearnModule",
  "version": "1.0.0.2",
  "summary": "A short description of TMRelearnModule.",
  "description": "TODO: Add long description of the pod here.",
  "homepage": "https://github.com/GuiLQing/TMRelearnModule.git",
  "license": {
    "type": "MIT",
    "file": "LICENSE"
  },
  "authors": {
    "GuiLQing": "gui950823@126.com"
  },
  "source": {
    "git": "https://github.com/GuiLQing/TMRelearnModule.git",
    "tag": "1.0.0.2"
  },
  "platforms": {
    "ios": "9.0"
  },
  "source_files": "TMRelearnModule/Classes/TMRelearnModule/**/*",
  "resources": "TMRelearnModule/Classes/TMRelearnModule.bundle",
  "dependencies": {
    "AFNetworking": [

    ],
    "Masonry": [

    ],
    "MJRefresh": [

    ],
    "MJExtension": [

    ],
    "YJNetManager": [

    ],
    "SGTools/SGSingleAudioPlayer": [

    ],
    "SGTools/SGSpeechSynthesizer": [

    ],
    "SGTools/SGVocabularyDictation": [

    ],
    "MarqueeLabel": [
      "3.2.0"
    ],
    "ReactiveObjC": [

    ],
    "YJTaskMark": [

    ],
    "SGTools/SGTriangleView": [

    ],
    "SGTools/SGGradientProgress": [

    ],
    "PSGChainedMode": [

    ],
    "YJBaseModule": [

    ]
  }
}
