{
  "name": "SSIHolder",
  "version": "0.1.3",
  "swift_versions": "4.2",
  "summary": "SSIHolder. ios SDK",
  "description": "Self Sovrin Idendity SDK for iOS",
  "homepage": "https://tde.sktelecom.com/stash/projects/SSW/repos/ssw_sdk_ios/browse?at=refs%2Fheads%2F0.1.2",
  "license": {
    "type": "MIT",
    "file": "LICENSE"
  },
  "authors": {
    "anna-won": "togass@sk.com"
  },
  "source": {
    "git": "https://togass@tde.sktelecom.com/stash/scm/ssip/ssisdk_ios.git",
    "branch": "0.1.3"
  },
  "platforms": {
    "ios": "10.0"
  },
  "dependencies": {
    "ObjectMapper": [

    ],
    "RxSwift": [

    ],
    "CocoaLumberjack/Swift": [

    ]
  },
  "source_files": "SSIHolder/Classes/**/*",
  "frameworks": "Indy",
  "xcconfig": {
    "FRAMEWORK_SEARCH_PATHS": "/Users/eunkyungwon/SSI/SSIHolder"
  },
  "vendored_frameworks": "SSIHolder/Indy.framework",
  "swift_version": "4.2"
}
