{
  "name": "AotterTrek-iOS-SDK",
  "version": "3.0.0-beta11",
  "summary": "AotterTrek SDK for iOS developer.",
  "description": "AotterTrek SDK for iOS developer. Contains Tracker and Ad features.",
  "homepage": "https://trek.aotter.net",
  "license": "MIT",
  "authors": "Aotter Inc.",
  "platforms": {
    "ios": "9.0"
  },
  "source": {
    "git": "https://github.com/aotter/AotterTrek-iOS-SDK.git",
    "tag": "3.0.0-beta11"
  },
  "exclude_files": "Classes/Exclude",
  "vendored_frameworks": "AotterTrekSample/AotterTrek-iOS-SDK.framework",
  "swift_versions": "4.2",
  "frameworks": [
    "SystemConfiguration",
    "CoreMedia",
    "WebKit",
    "CoreTelephony",
    "AdSupport",
    "AVKit",
    "AVFoundation",
    "Foundation",
    "UIKit",
    "GoogleInteractiveMediaAds"
  ],
  "dependencies": {
    "GoogleAds-IMA-iOS-SDK": [
      "~> 3.9"
    ]
  },
  "swift_version": "4.2"
}
