{
  "name": "LineDesignSystem",
  "version": "0.0.2",
  "summary": "LINE Design System UIComponent Framework",
  "description": "This is LINE Design System UIComponent Framework",
  "homepage": "https://git.linecorp.com/LINE-Client/LineDesignSystem",
  "license": {
    "type": "MIT",
    "file": "LICENSE"
  },
  "authors": {
    "LINE-Client": [
      "keonhong.lee@linecorp.com",
      "rights054@linecorp.com",
      "dojeung.hwang@linecorp.com"
    ]
  },
  "source": {
    "git": "https://git.linecorp.com/LINE-Client/LineDesignSystem.git",
    "tag": "0.0.2"
  },
  "platforms": {
    "ios": "9.0"
  },
  "swift_versions": "4.2",
  "source_files": "LineDesignSystem/**/*.{h,swift}",
  "dependencies": {
    "MBProgressHUD": [
      "~> 1.1.0"
    ]
  },
  "swift_version": "4.2"
}
